…
    ## [1] above 1400 below 1400 below 1400 below 1400 above 1400 above 1400
    ## Levels: above 1400 below 1400

A data frame of the prediction based on the test data set and the test
data set are shown below.

``` r
bag_fitInfo <- tbl_df(data.frame(bag_pred, weekdayDataTest$shares_group, weekdayDataTest$num_keywords, 
                                weekdayDataTest$avg_positive_polarity,
                                 weekdayDataTest$num_videos, weekdayDataTest$num_imgs))

bag_fitInfo
```

    ## # A tibble: 1,999 x 6
    ##    bag_pred weekdayDataTest~ weekdayDataTest~ weekdayDataTest~ weekdayDataTest~
    ##    <fct>    <fct>                       <dbl>            <dbl>            <dbl>
    ##  1 above 1~ below 1400                      4            0.287                0
    ##  2 below 1~ below 1400                      7            0.411                0
    ##  3 below 1~ below 1400                      9            0.428                0
    ##  4 below 1~ above 1400                      7            0.567                0
    ##  5 above 1~ below 1400                      5            0.298                1
    ##  6 above 1~ above 1400                      8            0.404                0
    ##  7 above 1~ above 1400                      7            0.435                0
    ##  8 below 1~ below 1400                      8            0.376                0
    ##  9 above 1~ above 1400                      8            0.427                0
    ## 10 below 1~ above 1400                     10            0.408                0
    ## # ... with 1,989 more rows, and 1 more variable: weekdayDataTest.num_imgs <dbl>
…
