…
    ## [1] above 1400 above 1400 above 1400 above 1400 above 1400 above 1400
    ## Levels: above 1400 below 1400

A data frame of the prediction based on the test data set and the test
data set are shown below.

``` r
bag_fitInfo <- tbl_df(data.frame(bag_pred, weekdayDataTest$shares_group, weekdayDataTest$num_keywords, 
                                weekdayDataTest$avg_positive_polarity,
                                 weekdayDataTest$num_videos, weekdayDataTest$num_imgs))

bag_fitInfo
```

    ## # A tibble: 736 x 6
    ##    bag_pred weekdayDataTest~ weekdayDataTest~ weekdayDataTest~ weekdayDataTest~
    ##    <fct>    <fct>                       <dbl>            <dbl>            <dbl>
    ##  1 above 1~ above 1400                      6            0.317                0
    ##  2 above 1~ above 1400                      7            0.417                0
    ##  3 above 1~ above 1400                      9            0.331                0
    ##  4 above 1~ above 1400                      9            0.434                0
    ##  5 above 1~ above 1400                      8            0.432                1
    ##  6 above 1~ below 1400                      7            0.374                0
    ##  7 above 1~ above 1400                     10            0.269                0
    ##  8 above 1~ above 1400                      9            0.387                0
    ##  9 above 1~ above 1400                      8            0.331                1
    ## 10 above 1~ above 1400                     10            0.378               11
    ## # ... with 726 more rows, and 1 more variable: weekdayDataTest.num_imgs <dbl>
…
