…
    ## [1] below 1400 below 1400 above 1400 above 1400 below 1400 above 1400
    ## Levels: above 1400 below 1400

A data frame of the prediction based on the test data set and the test
data set are shown below.

``` r
bag_fitInfo <- tbl_df(data.frame(bag_pred, weekdayDataTest$shares_group, weekdayDataTest$num_keywords, 
                                weekdayDataTest$avg_positive_polarity,
                                 weekdayDataTest$num_videos, weekdayDataTest$num_imgs))

bag_fitInfo
```

    ## # A tibble: 2,217 x 6
    ##    bag_pred weekdayDataTest~ weekdayDataTest~ weekdayDataTest~ weekdayDataTest~
    ##    <fct>    <fct>                       <dbl>            <dbl>            <dbl>
    ##  1 below 1~ below 1400                      6            0.300                0
    ##  2 below 1~ below 1400                     10            0.359                0
    ##  3 above 1~ above 1400                      7            0.517                0
    ##  4 above 1~ below 1400                     10            0.299                0
    ##  5 below 1~ above 1400                      5            0.381                1
    ##  6 above 1~ below 1400                      7            0.422                0
    ##  7 below 1~ below 1400                      7            0.419                0
    ##  8 below 1~ below 1400                      5            0.435                0
    ##  9 below 1~ below 1400                      6            0.353                0
    ## 10 below 1~ below 1400                     10            0.341                0
    ## # ... with 2,207 more rows, and 1 more variable: weekdayDataTest.num_imgs <dbl>
…
