…
    ## [1] below 1400 below 1400 above 1400 above 1400 below 1400 above 1400
    ## Levels: above 1400 below 1400

A data frame of the prediction based on the test data set and the test
data set are shown below.

``` r
bag_fitInfo <- tbl_df(data.frame(bag_pred, weekdayDataTest$shares_group, weekdayDataTest$num_keywords, 
                                weekdayDataTest$avg_positive_polarity,
                                 weekdayDataTest$num_videos, weekdayDataTest$num_imgs))

bag_fitInfo
```

    ## # A tibble: 2,231 x 6
    ##    bag_pred weekdayDataTest~ weekdayDataTest~ weekdayDataTest~ weekdayDataTest~
    ##    <fct>    <fct>                       <dbl>            <dbl>            <dbl>
    ##  1 below 1~ below 1400                      7            0.453                0
    ##  2 below 1~ above 1400                      5            0.318                0
    ##  3 above 1~ below 1400                      8            0.376                0
    ##  4 above 1~ above 1400                      9            0.452               11
    ##  5 below 1~ below 1400                      6            0.342                1
    ##  6 above 1~ below 1400                     10            0.430                0
    ##  7 below 1~ below 1400                      8            0.440                0
    ##  8 below 1~ below 1400                     10            0.422                0
    ##  9 below 1~ below 1400                      5            0.455                0
    ## 10 below 1~ above 1400                      6            0.343                1
    ## # ... with 2,221 more rows, and 1 more variable: weekdayDataTest.num_imgs <dbl>
…
